Network Preliminaries
…
- One table represents entities and their attributes:

.column[
```r 
 undirected_graph_1958 %>%
  activate(nodes) %>%
  as_tibble()
```
]

.column[

```
## # A tibble: 70 x 2
##    name  .tidygraph_node_index
##    <chr>                 <int>
##  1 1                         1
##  2 2                         2
##  3 3                         3
##  4 4                         4
##  5 5                         5
##  6 6                         6
##  7 7                         7
##  8 8                         8
##  9 9                         9
## 10 11                       10
## # … with 60 more rows
```
…
- Second table to represent edges and their attributes:

.column[
```r
undirected_graph_1958 %>%
  activate(edges) %>%
  as_tibble()
```
]

.column[

```
## # A tibble: 202 x 4
##     from    to .tidygraph_edge…
##    <int> <int> <list>          
##  1     1    14 <int [2]>       
##  2     1    16 <int [1]>       
##  3     1    20 <int [1]>       
##  4     1    21 <int [1]>       
##  5     2     9 <int [1]>       
##  6     2    21 <int [1]>       
##  7     4     5 <int [2]>       
##  8     4    10 <int [2]>       
##  9     4    15 <int [1]>       
## 10     4    18 <int [2]>       
## # … with 192 more rows, and 1 more
## #   variable: .orig_data <list>
```
…
undirected_graph_1958 %>%
  activate(nodes) %>%
  as_tibble
```
]

.column[

```
## # A tibble: 70 x 3
##    name  .tidygraph_node_index degree
##    <chr>                 <int>  <dbl>
##  1 1                         1      4
##  2 2                         2      2
##  3 3                         3      0
##  4 4                         4      5
##  5 5                         5      5
##  6 6                         6      5
##  7 7                         7      3
##  8 8                         8      5
##  9 9                         9      6
## 10 11                       10      5
## # … with 60 more rows
```
…
